{
  "files": {
    "main.css": "/static/css/main.66c331fc.chunk.css",
    "main.js": "/static/js/main.c7558912.chunk.js",
    "main.js.map": "/static/js/main.c7558912.chunk.js.map",
    "runtime-main.js": "/static/js/runtime-main.9534fb55.js",
    "runtime-main.js.map": "/static/js/runtime-main.9534fb55.js.map",
    "static/js/2.a2f7efdb.chunk.js": "/static/js/2.a2f7efdb.chunk.js",
    "static/js/2.a2f7efdb.chunk.js.map": "/static/js/2.a2f7efdb.chunk.js.map",
    "index.html": "/index.html",
    "static/css/main.66c331fc.chunk.css.map": "/static/css/main.66c331fc.chunk.css.map",
    "static/js/2.a2f7efdb.chunk.js.LICENSE.txt": "/static/js/2.a2f7efdb.chunk.js.LICENSE.txt",
    "static/media/madrid.0e798b2a.png": "/static/media/madrid.0e798b2a.png"
  },
  "entrypoints": [
    "static/js/runtime-main.9534fb55.js",
    "static/js/2.a2f7efdb.chunk.js",
    "static/css/main.66c331fc.chunk.css",
    "static/js/main.c7558912.chunk.js"
  ]
}